{
  "photos": {
    "page": 1,
    "pages": 79,
    "perpage": 2,
    "total": "7861",
    "photo": [
      {
        "id": "16717306373",
        "owner": "130406501@N08",
        "secret": "c074780d16",
        "server": "8714",
        "farm": 9,
        "title": "DSC_8627",
        "ispublic": 1,
        "isfriend": 0,
        "isfamily": 0
      },
      {
        "id": "16370206483",
        "owner": "131105760@N07",
        "secret": "db0a211487",
        "server": "8693",
        "farm": 9,
        "title": "New Book",
        "ispublic": 1,
        "isfriend": 0,
        "isfamily": 0
      }
    ]
  },
  "stat": "ok"
}


